{
    "KPlugin": {
        "Category": "Window Management",
        "Description": "Zoom out until all opened windows can be displayed side-by-side",
        "Description[ar]": "بعِّد إلى أن يصير بالإمكان عرض كل النوافذ المفتوحة جبناً  إلى جنب",
        "Description[az]": "Bütün açıq pəncərələrin miniatürünü yan-yana göstərir",
        "Description[be]": "Маштаб памяншаецца, пакуль усе адкрытыя вокны не будуць адлюстроўвацца побач адно з адным",
        "Description[bg]": "Намаляване на мащаба, докато всички отворени прозорци се представят един до друг",
        "Description[ca@valencia]": "Reduïx fins que totes les finestres obertes es poden mostrar una al costat de l'altra",
        "Description[ca]": "Redueix fins que totes les finestres obertes es poden mostrar una al costat de l'altra",
        "Description[cs]": "Oddálí plochu, aby byla vidět všechna okna",
        "Description[de]": "Verkleinert Fenster auf der Arbeitsfläche, sodass sie alle nebeneinander sichtbar sind",
        "Description[en_GB]": "Zoom out until all opened windows can be displayed side-by-side",
        "Description[eo]": "Malzomi ĝis ĉiuj malfermitaj fenestroj povas esti montrataj flank-al-flanke",
        "Description[es]": "Reducir hasta que todas las ventanas abiertas se puedan mostrar una al lado de la otra",
        "Description[et]": "Vähendamine, kuni kõiki avatud aknaid saab kuvada üksteise kõrval",
        "Description[eu]": "Zooma urrundu irekitako leiho guztiak bata bestearen ondoan bistaratu arte",
        "Description[fi]": "Loitontaa työpöytää kunnes avoimet ikkunat voi esittää rinnakkain",
        "Description[fr]": "Faire un zoom arrière jusqu'à ce que toutes les fenêtres ouvertes puissent être affichées côte à côte",
        "Description[gl]": "Reduce ata que poida mostrar lado por lado todas as xanelas.",
        "Description[he]": "התרחקות עד שכל החלונות הפתוחים יופיעו זה לצד זה",
        "Description[hu]": "Kinagyítja a nézetet, hogy az összes megnyitott ablak áttekinthető legyen",
        "Description[ia]": "Zoom foras usque omne fenestras aperite pote esser monstrate flanco a flanco",
        "Description[id]": "Zoom keluar hingga semua jendela yang terbuka bisa ditampilkan sisi demi sisi",
        "Description[it]": "Arretra per far vedere tutte le finestre aperte fianco a fianco",
        "Description[ja]": "ズームアウトしてすべての開かれたウィンドウを並べて表示します",
        "Description[ka]": "მასშტაბირება, სანამ ყველა გახსნილი ფანჯარა გვერდიგვერდ არ გამოჩნდება",
        "Description[ko]": "모든 열린 창을 축소시켜서 한 화면에 보이도록 합니다",
        "Description[nl]": "Zoomt uit totdat alle geopende vensters zij-aan-zij kunnen worden getoond",
        "Description[nn]": "Forminsk skjermflata heilt til alle dei opne vindauga kan visast side om side",
        "Description[pl]": "Pomniejsza do chwili, aż wszystkie otwarte okna będą widoczne obok siebie",
        "Description[pt]": "Reduz até que todas as janelas abertas possam aparecer lado-a-lado",
        "Description[pt_BR]": "Reduz até que todas as janelas abertas possam ser apresentadas lado a lado",
        "Description[ro]": "Îndepărtează până toate ferestrele deschise se pot afișa una lângă alta",
        "Description[ru]": "Просмотр миниатюр всех открытых окон рядом друг с другом",
        "Description[sk]": "Oddiali všetky otvorené okná a zobrazí ich vedľa seba",
        "Description[sl]": "Oddaljite, dokler se vsa odprta okna ne prikažejo eno poleg drugega",
        "Description[sv]": "Zooma ut till alla öppnade fönster kan visas sida vid sida",
        "Description[ta]": "அனைத்து சாளரங்களையும் பக்கத்து பக்கத்தில் சிறிதாக்கி காட்டும்",
        "Description[tr]": "Tüm açık pencereler yan yana görüntülenebilene dek uzaklaştır",
        "Description[uk]": "Зменшення масштабу вікон так, щоб всі відкриті вікна можна було розташувати поряд",
        "Description[vi]": "Thu nhỏ cho đến khi tất cả các cửa sổ đang mở hiển thị được cạnh nhau",
        "Description[x-test]": "xxZoom out until all opened windows can be displayed side-by-sidexx",
        "Description[zh_CN]": "所有窗口缩小后平铺显示在一个画面上",
        "Description[zh_TW]": "縮小顯示讓所有開啟的視窗都同時顯示",
        "EnabledByDefault": true,
        "License": "GPL",
        "Name": "Present Windows",
        "Name[ar]": "النوافذ الحاضرة",
        "Name[ast]": "Presentación de ventanes",
        "Name[az]": "Hazırkı pəncərələr",
        "Name[be]": "Бягучыя вокны",
        "Name[bg]": "Представяне на прозорци",
        "Name[ca@valencia]": "Presenta les finestres",
        "Name[ca]": "Presenta les finestres",
        "Name[cs]": "Prezentace oken",
        "Name[de]": "Fenster zeigen",
        "Name[en_GB]": "Present Windows",
        "Name[eo]": "Prezenti Fenestrojn",
        "Name[es]": "Presentar ventanas",
        "Name[et]": "Olemasolevad aknad",
        "Name[eu]": "Aurkeztu leihoak",
        "Name[fi]": "Ikkunoiden esittäminen",
        "Name[fr]": "Fenêtres actuelles",
        "Name[gl]": "Dispor as xanelas",
        "Name[he]": "הצגת חלונות",
        "Name[hu]": "Ablakáttekintő",
        "Name[ia]": "Fenestras actual",
        "Name[id]": "Present Windows",
        "Name[it]": "Presenta le finestre",
        "Name[ja]": "ウィンドウを表示",
        "Name[ka]": "არსებული ფანჯრები",
        "Name[ko]": "창 진열하기",
        "Name[nl]": "Vensters presenteren",
        "Name[nn]": "Presenter vindauge",
        "Name[pl]": "Prezentacja okien",
        "Name[pt]": "Apresentar as Janelas",
        "Name[pt_BR]": "Apresentar janelas",
        "Name[ro]": "Prezintă ferestrele",
        "Name[ru]": "Все окна",
        "Name[sk]": "Súčasné okná",
        "Name[sl]": "Prikaži okna",
        "Name[sv]": "Befintliga fönster",
        "Name[ta]": "சாளரங்களை முன்வை",
        "Name[tr]": "Pencereleri Sun",
        "Name[uk]": "Показ вікон",
        "Name[vi]": "Các cửa sổ hiện thời",
        "Name[x-test]": "xxPresent Windowsxx",
        "Name[zh_CN]": "窗口平铺展示",
        "Name[zh_TW]": "展示視窗"
    },
    "X-KDE-ConfigModule": "kwin_windowview_config"
}
